cpld/simulation/qsim/freqcounter.msim.vcd
$comment
	File created using the following command:
		vcd file freqcounter.msim.vcd -direction
$end
$date
	Sat Aug 29 22:23:16 2020
$end
$version
	ModelSim Version 2020.1
$end
$timescale
	1ps
$end

$scope module top_vhd_vec_tst $end
$var wire 1 ! icp1 $end
$var wire 1 " int1 $end
$var wire 1 # led2 $end
$var wire 1 $ miso $end
$var wire 1 % modeshift $end
$var wire 1 & mosi $end
$var wire 1 ' rampstartP $end
$var wire 1 ( rampstopN $end
$var wire 1 ) refclk $end
$var wire 1 * sck $end
$var wire 1 + sigclk $end
$var wire 1 , sigin1 $end
$var wire 1 - sigin2 $end
$var wire 1 . sigout $end
$var wire 1 / ss $end

$scope module i1 $end
$var wire 1 0 gnd $end
$var wire 1 1 vcc $end
$var wire 1 2 unknown $end
$var wire 1 3 devoe $end
$var wire 1 4 devclrn $end
$var wire 1 5 devpor $end
$var wire 1 6 ww_devoe $end
$var wire 1 7 ww_devclrn $end
$var wire 1 8 ww_devpor $end
$var wire 1 9 ww_refclk $end
$var wire 1 : ww_miso $end
$var wire 1 ; ww_mosi $end
$var wire 1 < ww_sck $end
$var wire 1 = ww_ss $end
$var wire 1 > ww_icp1 $end
$var wire 1 ? ww_int1 $end
$var wire 1 @ ww_modeshift $end
$var wire 1 A ww_led2 $end
$var wire 1 B ww_rampstopN $end
$var wire 1 C ww_rampstartP $end
$var wire 1 D ww_sigclk $end
$var wire 1 E ww_sigout $end
$var wire 1 F ww_sigin1 $end
$var wire 1 G ww_sigin2 $end
$var wire 1 H \sck~combout\ $end
$var wire 1 I \ss~combout\ $end
$var wire 1 J \sigclk~combout\ $end
$var wire 1 K \eventcounter[1]~15\ $end
$var wire 1 L \eventcounter[1]~15COUT1_32\ $end
$var wire 1 M \syn1siggate~regout\ $end
$var wire 1 N \refclk~combout\ $end
$var wire 1 O \sigin2~combout\ $end
$var wire 1 P \mosi~combout\ $end
$var wire 1 Q \sigin1~combout\ $end
$var wire 1 R \modeshift~combout\ $end
$var wire 1 S \sigout~0\ $end
$var wire 1 T \siggate~regout\ $end
$var wire 1 U \eventcounter[2]~7\ $end
$var wire 1 V \eventcounter[3]~29\ $end
$var wire 1 W \eventcounter[3]~29COUT1_33\ $end
$var wire 1 X \eventcounter[4]~21\ $end
$var wire 1 Y \eventcounter[4]~21COUT1_34\ $end
$var wire 1 Z \eventcounter[5]~13\ $end
$var wire 1 [ \eventcounter[5]~13COUT1_35\ $end
$var wire 1 \ \eventcounter[6]~3\ $end
$var wire 1 ] \eventcounter[6]~3COUT1_36\ $end
$var wire 1 ^ \eventcounter[7]~25\ $end
$var wire 1 _ \eventcounter[8]~19\ $end
$var wire 1 ` \eventcounter[8]~19COUT1_37\ $end
$var wire 1 a \eventcounter[9]~11\ $end
$var wire 1 b \eventcounter[9]~11COUT1_38\ $end
$var wire 1 c \Mux0~0\ $end
$var wire 1 d \eventcounter[10]~5\ $end
$var wire 1 e \eventcounter[10]~5COUT1_39\ $end
$var wire 1 f \eventcounter[11]~27\ $end
$var wire 1 g \eventcounter[11]~27COUT1_40\ $end
$var wire 1 h \eventcounter[12]~23\ $end
$var wire 1 i \eventcounter[13]~17\ $end
$var wire 1 j \eventcounter[13]~17COUT1_41\ $end
$var wire 1 k \Mux0~1\ $end
$var wire 1 l \Mux0~2\ $end
$var wire 1 m \Mux0~3\ $end
$var wire 1 n \Mux0~4\ $end
$var wire 1 o \Mux0~5\ $end
$var wire 1 p \Mux0~6_combout\ $end
$var wire 1 q \eventcounter[14]~9\ $end
$var wire 1 r \eventcounter[14]~9COUT1_42\ $end
$var wire 1 s \Mux0~7\ $end
$var wire 1 t \Mux0~8\ $end
$var wire 1 u \Mux0~9_combout\ $end
$var wire 1 v \syn1cpugate~regout\ $end
$var wire 1 w \cpugate~regout\ $end
$var wire 1 x \sigout~1\ $end
$var wire 1 y mux [3] $end
$var wire 1 z mux [2] $end
$var wire 1 { mux [1] $end
$var wire 1 | mux [0] $end
$var wire 1 } eventcounter [15] $end
$var wire 1 ~ eventcounter [14] $end
$var wire 1 !! eventcounter [13] $end
$var wire 1 "! eventcounter [12] $end
$var wire 1 #! eventcounter [11] $end
$var wire 1 $! eventcounter [10] $end
$var wire 1 %! eventcounter [9] $end
$var wire 1 &! eventcounter [8] $end
$var wire 1 '! eventcounter [7] $end
$var wire 1 (! eventcounter [6] $end
$var wire 1 )! eventcounter [5] $end
$var wire 1 *! eventcounter [4] $end
$var wire 1 +! eventcounter [3] $end
$var wire 1 ,! eventcounter [2] $end
$var wire 1 -! eventcounter [1] $end
$var wire 1 .! eventcounter [0] $end
$var wire 1 /! eventhold [15] $end
$var wire 1 0! eventhold [14] $end
$var wire 1 1! eventhold [13] $end
$var wire 1 2! eventhold [12] $end
$var wire 1 3! eventhold [11] $end
$var wire 1 4! eventhold [10] $end
$var wire 1 5! eventhold [9] $end
$var wire 1 6! eventhold [8] $end
$var wire 1 7! eventhold [7] $end
$var wire 1 8! eventhold [6] $end
$var wire 1 9! eventhold [5] $end
$var wire 1 :! eventhold [4] $end
$var wire 1 ;! eventhold [3] $end
$var wire 1 <! eventhold [2] $end
$var wire 1 =! eventhold [1] $end
$var wire 1 >! eventhold [0] $end
$var wire 1 ?! readindex [3] $end
$var wire 1 @! readindex [2] $end
$var wire 1 A! readindex [1] $end
$var wire 1 B! readindex [0] $end
$var wire 1 C! \ALT_INV_siggate~regout\ $end
$var wire 1 D! \ALT_INV_ss~combout\ $end
$upscope $end
$upscope $end
$enddefinitions $end
#0
$dumpvars
x!
x"
x#
x$
1%
0&
x'
x(
0)
0*
0+
0,
0-
x.
0/
00
11
x2
13
14
15
16
17
18
09
x:
0;
0<
0=
x>
x?
1@
xA
xB
xC
0D
xE
0F
0G
xH
xI
xJ
xK
xL
0M
xN
xO
xP
xQ
xR
xS
0T
xU
xV
0W
xX
1Y
xZ
0[
x\
1]
x^
1_
x`
0a
xb
xc
1d
xe
0f
xg
xh
xi
0j
xk
xl
xm
xn
xo
xp
xq
1r
xs
xt
xu
0v
0w
xx
1C!
xD!
0y
0z
0{
0|
0}
0~
0!!
0"!
0#!
0$!
0%!
0&!
0'!
0(!
0)!
0*!
0+!
0,!
0-!
0.!
0/!
00!
01!
02!
03!
04!
05!
06!
07!
08!
09!
0:!
0;!
0<!
0=!
0>!
0?!
0@!
0A!
0B!
$end
#1132
0O
0Q
0P
1R
#1163
0I
0J
0H
0N
1D!
#1639
0Z
#1653
1e
0b
#1661
1`
#1695
0L
#1699
0K
#1762
1\
#1764
0g
#1870
0V
#1871
1X
#1879
1q
0i
#1947
1U
#1989
1h
#2026
0^
#2114
0t
#2275
1s
#2759
1p
#2960
0k
#3434
1n
#3462
0o
#4021
x:
x$
#4109
xE
x.
#4295
0?
0"
#4378
0B
0>
0(
0!
#4604
1l
#4606
1c
#4607
0m
#4947
0u
#5599
0S
#6103
0C
0'
#6104
0x
#6930
1A
1#
#8968
0:
0$
#9000
1+
1D
#10000
0+
0D
#10163
1J
#10213
0E
0.
#11163
0J
#12724
1.!
#19000
1+
1D
#20000
0+
0D
#20163
1J
#21163
0J
#22724
1>!
1-!
0.!
#29000
1+
1D
#30000
0+
0D
#30163
1J
#31163
0J
#32724
0>!
1=!
1.!
#34419
1L
#34423
1K
#39000
1+
1D
#40000
0+
0D
#40163
1J
#41163
0J
#42724
1>!
1,!
0-!
0.!
#44419
0L
#44423
0K
#44671
0U
#44684
1U
#49000
1+
1D
#50000
0+
1)
0D
19
#50163
1J
#51163
1N
0J
#52724
0>!
0=!
1<!
1.!
#53834
1v
#59000
1+
1D
#60000
0+
0D
#60163
1J
#61163
0J
#62724
1>!
1-!
0.!
#69000
1+
1D
#70000
0+
0D
#70163
1J
#71163
0J
#72724
0>!
1=!
1.!
#74419
1L
#74423
1K
#74684
0U
#79000
1+
1D
#80000
0+
0D
#80163
1J
#81163
0J
#82724
1>!
1+!
0,!
0-!
0.!
#84419
0L
#84423
0K
#84594
1V
#84671
1U
#89000
1+
1D
#90000
0+
0D
#90163
1J
#91163
0J
#92724
1;!
0>!
0=!
0<!
1.!
#99000
1+
1D
#100000
0+
0)
0D
09
#100163
1J
#101163
0N
0J
#102724
1>!
1-!
0.!
#109000
1+
1D
#110000
0+
0D
#110163
1J
#111163
0J
#112724
0>!
1=!
1.!
#114419
1L
#114423
1K
#119000
1+
1D
#120000
0+
0D
#120163
1J
#121163
0J
#122724
1>!
1,!
0-!
0.!
#124419
0L
#124423
0K
#124671
0U
#124684
1U
#129000
1+
1D
#130000
0+
0D
#130163
1J
#131163
0J
#132724
0>!
0=!
1<!
1.!
#139000
1+
1D
#140000
0+
0D
#140163
1J
#141163
0J
#142724
1>!
1-!
0.!
#149000
1+
1D
#150000
0+
1)
0D
19
#150163
1J
#151163
1N
0J
#152724
0>!
1=!
1.!
#153834
1w
#154419
1L
#154423
1K
#154684
0U
#158212
1B
1>
1(
1!
#159000
1+
1D
#160000
0+
0D
#160163
1J
#161163
0J
#162724
1>!
1*!
0+!
0,!
0-!
0.!
#164419
0L
#164423
0K
#164594
0V
#164595
0X
#164671
1U
#164717
1X
#169000
1+
1D
#170000
0+
0D
#170163
1J
#171163
0J
#172348
1:!
#172724
0;!
0>!
0=!
0<!
1.!
#179000
1+
1D
#180000
0+
0D
#180163
1J
#181163
0J
#182724
1>!
1-!
0.!
#189000
1+
1D
#190000
0+
0D
#190163
1J
#191163
0J
#192724
0>!
1=!
1.!
#194419
1L
#194423
1K
#199000
1+
1D
#200000
0+
0)
0D
09
#200163
1J
#201163
0N
0J
#202724
1>!
1,!
0-!
0.!
#204419
0L
#204423
0K
#204671
0U
#204684
1U
#209000
1+
1D
#210000
0+
0D
#210163
1J
#211163
0J
#212724
0>!
0=!
1<!
1.!
#219000
1+
1D
#220000
0+
0D
#220163
1J
#221163
0J
#222724
1>!
1-!
0.!
#229000
1+
1D
#230000
0+
0D
#230163
1J
#231163
0J
#232724
0>!
1=!
1.!
#234419
1L
#234423
1K
#234684
0U
#239000
1+
1D
#240000
0+
0D
#240163
1J
#241163
0J
#242724
1>!
1+!
0,!
0-!
0.!
#244419
0L
#244423
0K
#244594
1V
#244671
1U
#244717
0X
#249000
1+
1D
#250000
0+
1)
0D
19
#250163
1J
#251163
1N
0J
#252724
1;!
0>!
0=!
0<!
1.!
#259000
1+
1D
#260000
0+
0D
#260163
1J
#261163
0J
#262724
1>!
1-!
0.!
#269000
1+
1D
#270000
0+
0D
#270163
1J
#271163
0J
#272724
0>!
1=!
1.!
#274419
1L
#274423
1K
#279000
1+
1D
#280000
0+
0D
#280163
1J
#281163
0J
#282724
1>!
1,!
0-!
0.!
#284419
0L
#284423
0K
#284671
0U
#284684
1U
#289000
1+
1D
#290000
0+
0D
#290163
1J
#291163
0J
#292724
0>!
0=!
1<!
1.!
#299000
1+
1D
#300000
0+
0)
0D
09
#300163
1J
#301163
0N
0J
#302724
1>!
1-!
0.!
#309000
1+
1D
#310000
0+
0D
#310163
1J
#311163
0J
#312724
0>!
1=!
1.!
#314419
1L
#314423
1K
#314684
0U
#319000
1+
1D
#320000
0+
0D
#320163
1J
#321163
0J
#322724
1>!
1)!
0*!
0+!
0,!
0-!
0.!
#324363
1Z
#324419
0L
#324423
0K
#324594
0V
#324595
1X
#324671
1U
#324718
0Z
#329000
1+
1D
#330000
0+
0D
#330163
1J
#331163
0J
#332348
19!
0:!
#332724
0;!
0>!
0=!
0<!
1.!
#339000
1+
1D
#340000
0+
0D
#340163
1J
#341163
0J
#342724
1>!
1-!
0.!
#349000
1+
1D
#350000
0+
1)
0D
19
#350163
1J
#351163
1N
0J
#352724
0>!
1=!
1.!
#354419
1L
#354423
1K
#359000
1+
1D
#360000
0+
0D
#360163
1J
#361163
0J
#362724
1>!
1,!
0-!
0.!
#364419
0L
#364423
0K
#364671
0U
#364684
1U
#369000
1+
1D
#370000
0+
0D
#370163
1J
#371163
0J
#372724
0>!
0=!
1<!
1.!
#379000
1+
1D
#380000
0+
0D
#380163
1J
#381163
0J
#382724
1>!
1-!
0.!
#389000
1+
1D
#390000
0+
0D
#390163
1J
#391163
0J
#392724
0>!
1=!
1.!
#394419
1L
#394423
1K
#394684
0U
#399000
1+
1D
#400000
0+
0)
0D
09
#400163
1J
#401163
0N
0J
#402724
1>!
1+!
0,!
0-!
0.!
#404419
0L
#404423
0K
#404594
1V
#404671
1U
#409000
1+
1D
#410000
0+
0D
#410163
1J
#411163
0J
#412724
1;!
0>!
0=!
0<!
1.!
#419000
1+
1D
#420000
0+
0D
#420163
1J
#421163
0J
#422724
1>!
1-!
0.!
#429000
1+
1D
#430000
0+
0D
#430163
1J
#431163
0J
#432724
0>!
1=!
1.!
#434419
1L
#434423
1K
#439000
1+
1D
#440000
0+
0D
#440163
1J
#441163
0J
#442724
1>!
1,!
0-!
0.!
#444419
0L
#444423
0K
#444671
0U
#444684
1U
#449000
1+
1D
#450000
0+
1)
0D
19
#450163
1J
#451163
1N
0J
#452724
0>!
0=!
1<!
1.!
#459000
1+
1D
#460000
0+
0D
#460163
1J
#461163
0J
#462724
1>!
1-!
0.!
#469000
1+
1D
#470000
0+
0D
#470163
1J
#471163
0J
#472724
0>!
1=!
1.!
#474419
1L
#474423
1K
#474684
0U
#479000
1+
1D
#480000
0+
0D
#480163
1J
#481163
0J
#482724
1>!
1*!
0+!
0,!
0-!
0.!
#484419
0L
#484423
0K
#484594
0V
#484595
0X
#484671
1U
#484717
1X
#484718
1Z
#484840
0Z
#489000
1+
1D
#490000
0+
0D
#490163
1J
#491163
0J
#492348
1:!
#492724
0;!
0>!
0=!
0<!
1.!
#499000
1+
1D
#500000
0+
0)
1*
0D
09
1<
#500163
1J
#501163
1H
0N
0J
#502724
1>!
1-!
0.!
#509000
1+
1D
#510000
0+
0D
#510163
1J
#511163
0J
#512724
0>!
1=!
1.!
#514419
1L
#514423
1K
#519000
1+
1D
#520000
0+
0D
#520163
1J
#521163
0J
#522724
1>!
1,!
0-!
0.!
#524419
0L
#524423
0K
#524671
0U
#524684
1U
#529000
1+
1D
#530000
0+
0D
#530163
1J
#531163
0J
#532724
0>!
0=!
1<!
1.!
#539000
1+
1D
#540000
0+
0D
#540163
1J
#541163
0J
#542724
1>!
1-!
0.!
#549000
1+
1D
#550000
0+
1)
0D
19
#550163
1J
#551163
1N
0J
#552724
0>!
1=!
1.!
#554419
1L
#554423
1K
#554684
0U
#559000
1+
1D
#560000
0+
0D
#560163
1J
#561163
0J
#562724
1>!
1+!
0,!
0-!
0.!
#564419
0L
#564423
0K
#564594
1V
#564671
1U
#564717
0X
#564840
1Z
#569000
1+
1D
#570000
0+
0D
#570163
1J
#571163
0J
#572724
1;!
0>!
0=!
0<!
1.!
#579000
1+
1D
#580000
0+
0D
#580163
1J
#581163
0J
#582724
1>!
1-!
0.!
#589000
1+
1D
#590000
0+
0D
#590163
1J
#591163
0J
#592724
0>!
1=!
1.!
#594419
1L
#594423
1K
#599000
1+
1D
#600000
0+
0)
0D
09
#600163
1J
#601163
0N
0J
#602724
1>!
1,!
0-!
0.!
#604419
0L
#604423
0K
#604671
0U
#604684
1U
#609000
1+
1D
#610000
0+
0D
#610163
1J
#611163
0J
#612724
0>!
0=!
1<!
1.!
#619000
1+
1D
#620000
0+
0D
#620163
1J
#621163
0J
#622724
1>!
1-!
0.!
#629000
1+
1D
#630000
0+
0D
#630163
1J
#631163
0J
#632724
0>!
1=!
1.!
#634419
1L
#634423
1K
#634684
0U
#639000
1+
1D
#640000
0+
0D
#640163
1J
#641163
0J
#642724
1>!
1(!
0)!
0*!
0+!
0,!
0-!
0.!
#644363
0Z
#644419
0L
#644423
0K
#644594
0V
#644595
1X
#644671
1U
#649000
1+
1D
#650000
0+
1)
0D
19
#650163
1J
#651163
1N
0J
#652348
18!
09!
0:!
#652724
0;!
0>!
0=!
0<!
1.!
#659000
1+
1D
#660000
0+
0D
#660163
1J
#661163
0J
#662724
1>!
1-!
0.!
#669000
1+
1D
#670000
0+
0D
#670163
1J
#671163
0J
#672724
0>!
1=!
1.!
#674419
1L
#674423
1K
#679000
1+
1D
#680000
0+
0D
#680163
1J
#681163
0J
#682724
1>!
1,!
0-!
0.!
#684419
0L
#684423
0K
#684671
0U
#684684
1U
#689000
1+
1D
#690000
0+
0D
#690163
1J
#691163
0J
#692724
0>!
0=!
1<!
1.!
#699000
1+
1D
#700000
0+
0)
0D
09
#700163
1J
#701163
0N
0J
#702724
1>!
1-!
0.!
#709000
1+
1D
#710000
0+
0D
#710163
1J
#711163
0J
#712724
0>!
1=!
1.!
#714419
1L
#714423
1K
#714684
0U
#719000
1+
1D
#720000
0+
0D
#720163
1J
#721163
0J
#722724
1>!
1+!
0,!
0-!
0.!
#724419
0L
#724423
0K
#724594
1V
#724671
1U
#729000
1+
1D
#730000
0+
0D
#730163
1J
#731163
0J
#732724
1;!
0>!
0=!
0<!
1.!
#739000
1+
1D
#740000
0+
0D
#740163
1J
#741163
0J
#742724
1>!
1-!
0.!
#749000
1+
1D
#750000
0+
1)
0D
19
#750163
1J
#751163
1N
0J
#752724
0>!
1=!
1.!
#754419
1L
#754423
1K
#759000
1+
1D
#760000
0+
0D
#760163
1J
#761163
0J
#762724
1>!
1,!
0-!
0.!
#764419
0L
#764423
0K
#764671
0U
#764684
1U
#769000
1+
1D
#770000
0+
0D
#770163
1J
#771163
0J
#772724
0>!
0=!
1<!
1.!
#779000
1+
1D
#780000
0+
0D
#780163
1J
#781163
0J
#782724
1>!
1-!
0.!
#789000
1+
1D
#790000
0+
0D
#790163
1J
#791163
0J
#792724
0>!
1=!
1.!
#794419
1L
#794423
1K
#794684
0U
#799000
1+
1D
#800000
0+
0)
0D
09
#800163
1J
#801163
0N
0J
#802724
1>!
1*!
0+!
0,!
0-!
0.!
#804419
0L
#804423
0K
#804594
0V
#804595
0X
#804671
1U
#804717
1X
#809000
1+
1D
#810000
0+
0D
#810163
1J
#811163
0J
#812348
1:!
#812724
0;!
0>!
0=!
0<!
1.!
#819000
1+
1D
#820000
0+
0D
#820163
1J
#821163
0J
#822724
1>!
1-!
0.!
#829000
1+
1D
#830000
0+
0D
#830163
1J
#831163
0J
#832724
0>!
1=!
1.!
#834419
1L
#834423
1K
#839000
1+
1D
#840000
0+
0D
#840163
1J
#841163
0J
#842724
1>!
1,!
0-!
0.!
#844419
0L
#844423
0K
#844671
0U
#844684
1U
#849000
1+
1D
#850000
0+
1)
0D
19
#850163
1J
#851163
1N
0J
#852724
0>!
0=!
1<!
1.!
#859000
1+
1D
#860000
0+
0D
#860163
1J
#861163
0J
#862724
1>!
1-!
0.!
#869000
1+
1D
#870000
0+
0D
#870163
1J
#871163
0J
#872724
0>!
1=!
1.!
#874419
1L
#874423
1K
#874684
0U
#879000
1+
1D
#880000
0+
0D
#880163
1J
#881163
0J
#882724
1>!
1+!
0,!
0-!
0.!
#884419
0L
#884423
0K
#884594
1V
#884671
1U
#884717
0X
#889000
1+
1D
#890000
0+
0D
#890163
1J
#891163
0J
#892724
1;!
0>!
0=!
0<!
1.!
#899000
1+
1D
#900000
0+
0)
0D
09
#900163
1J
#901163
0N
0J
#902724
1>!
1-!
0.!
#909000
1+
1D
#910000
0+
0D
#910163
1J
#911163
0J
#912724
0>!
1=!
1.!
#914419
1L
#914423
1K
#919000
1+
1D
#920000
0+
0D
#920163
1J
#921163
0J
#922724
1>!
1,!
0-!
0.!
#924419
0L
#924423
0K
#924671
0U
#924684
1U
#929000
1+
1D
#930000
0+
0D
#930163
1J
#931163
0J
#932724
0>!
0=!
1<!
1.!
#939000
1+
1D
#940000
0+
0D
#940163
1J
#941163
0J
#942724
1>!
1-!
0.!
#949000
1+
1D
#950000
0+
1)
0D
19
#950163
1J
#951163
1N
0J
#952724
0>!
1=!
1.!
#954419
1L
#954423
1K
#954684
0U
#959000
1+
1D
#960000
0+
0D
#960163
1J
#961163
0J
#962724
1>!
1)!
0*!
0+!
0,!
0-!
0.!
#964363
1Z
#964419
0L
#964423
0K
#964486
0\
#964594
0V
#964595
1X
#964671
1U
#964718
0Z
#964841
1\
#969000
1+
1D
#970000
0+
0D
#970163
1J
#971163
0J
#972348
19!
0:!
#972724
0;!
0>!
0=!
0<!
1.!
#979000
1+
1D
#980000
0+
0D
#980163
1J
#981163
0J
#982724
1>!
1-!
0.!
#989000
1+
1D
#990000
0+
0D
#990163
1J
#991163
0J
#992724
0>!
1=!
1.!
#994419
1L
#994423
1K
#999000
1+
1D
#1000000
0+
0)
0*
0D
09
0<
#1000163
1J
#1001163
0H
0N
0J
#1002724
1>!
1,!
0-!
0.!
#1004419
0L
#1004423
0K
#1004671
0U
#1004684
1U
#1009000
1+
1D
#1010000
0+
0D
#1010163
1J
#1011163
0J
#1012724
0>!
0=!
1<!
1.!
#1019000
1+
1D
#1020000
0+
0D
#1020163
1J
#1021163
0J
#1022724
1>!
1-!
0.!
#1029000
1+
1D
#1030000
0+
0D
#1030163
1J
#1031163
0J
#1032724
0>!
1=!
1.!
#1034419
1L
#1034423
1K
#1034684
0U
#1039000
1+
1D
#1040000
0+
0D
#1040163
1J
#1041163
0J
#1042724
1>!
1+!
0,!
0-!
0.!
#1044419
0L
#1044423
0K
#1044594
1V
#1044671
1U
#1049000
1+
1D
#1050000
0+
1)
0D
19
#1050163
1J
#1051163
1N
0J
#1052724
1;!
0>!
0=!
0<!
1.!
#1059000
1+
1D
#1060000
0+
0D
#1060163
1J
#1061163
0J
#1062724
1>!
1-!
0.!
#1069000
1+
1D
#1070000
0+
0D
#1070163
1J
#1071163
0J
#1072724
0>!
1=!
1.!
#1074419
1L
#1074423
1K
#1079000
1+
1D
#1080000
0+
0D
#1080163
1J
#1081163
0J
#1082724
1>!
1,!
0-!
0.!
#1084419
0L
#1084423
0K
#1084671
0U
#1084684
1U
#1089000
1+
1D
#1090000
0+
0D
#1090163
1J
#1091163
0J
#1092724
0>!
0=!
1<!
1.!
#1099000
1+
1D
#1100000
0+
0)
0D
09
#1100163
1J
#1101163
0N
0J
#1102724
1>!
1-!
0.!
#1109000
1+
1D
#1110000
0+
0D
#1110163
1J
#1111163
0J
#1112724
0>!
1=!
1.!
#1114419
1L
#1114423
1K
#1114684
0U
#1119000
1+
1D
#1120000
0+
0D
#1120163
1J
#1121163
0J
#1122724
1>!
1*!
0+!
0,!
0-!
0.!
#1124419
0L
#1124423
0K
#1124594
0V
#1124595
0X
#1124671
1U
#1124717
1X
#1124718
1Z
#1124840
0Z
#1124841
0\
#1124963
1\
#1129000
1+
1D
#1130000
0+
0D
#1130163
1J
#1131163
0J
#1132348
1:!
#1132724
0;!
0>!
0=!
0<!
1.!
#1139000
1+
1D
#1140000
0+
0D
#1140163
1J
#1141163
0J
#1142724
1>!
1-!
0.!
#1149000
1+
1D
#1150000
0+
1)
0D
19
#1150163
1J
#1151163
1N
0J
#1152724
0>!
1=!
1.!
#1154419
1L
#1154423
1K
#1159000
1+
1D
#1160000
0+
0D
#1160163
1J
#1161163
0J
#1162724
1>!
1,!
0-!
0.!
#1164419
0L
#1164423
0K
#1164671
0U
#1164684
1U
#1169000
1+
1D
#1170000
0+
0D
#1170163
1J
#1171163
0J
#1172724
0>!
0=!
1<!
1.!
#1179000
1+
1D
#1180000
0+
0D
#1180163
1J
#1181163
0J
#1182724
1>!
1-!
0.!
#1189000
1+
1D
#1190000
0+
0D
#1190163
1J
#1191163
0J
#1192724
0>!
1=!
1.!
#1194419
1L
#1194423
1K
#1194684
0U
#1199000
1+
1D
#1200000
0+
0)
0D
09
#1200163
1J
#1201163
0N
0J
#1202724
1>!
1+!
0,!
0-!
0.!
#1204419
0L
#1204423
0K
#1204594
1V
#1204671
1U
#1204717
0X
#1204840
1Z
#1204963
0\
#1209000
1+
1D
#1210000
0+
0D
#1210163
1J
#1211163
0J
#1212724
1;!
0>!
0=!
0<!
1.!
#1219000
1+
1D
#1220000
0+
0D
#1220163
1J
#1221163
0J
#1222724
1>!
1-!
0.!
#1229000
1+
1D
#1230000
0+
0D
#1230163
1J
#1231163
0J
#1232724
0>!
1=!
1.!
#1234419
1L
#1234423
1K
#1239000
1+
1D
#1240000
0+
0D
#1240163
1J
#1241163
0J
#1242724
1>!
1,!
0-!
0.!
#1244419
0L
#1244423
0K
#1244671
0U
#1244684
1U
#1249000
1+
1D
#1250000
0+
1)
0D
19
#1250163
1J
#1251163
1N
0J
#1252724
0>!
0=!
1<!
1.!
#1259000
1+
1D
#1260000
0+
0D
#1260163
1J
#1261163
0J
#1262724
1>!
1-!
0.!
#1269000
1+
1D
#1270000
0+
0D
#1270163
1J
#1271163
0J
#1272724
0>!
1=!
1.!
#1274419
1L
#1274423
1K
#1274684
0U
#1279000
1+
1D
#1280000
0+
0D
#1280163
1J
#1281163
0J
#1282724
1>!
1'!
0(!
0)!
0*!
0+!
0,!
0-!
0.!
#1284363
0Z
#1284419
0L
#1284423
0K
#1284486
1\
#1284594
0V
#1284595
1X
#1284671
1U
#1284750
1^
#1284885
0^
#1289000
1+
1D
#1290000
0+
0D
#1290163
1J
#1291163
0J
#1292348
08!
09!
0:!
17!
#1292724
0;!
0>!
0=!
0<!
1.!
#1299000
1+
1D
#1300000
0+
0)
0D
09
#1300163
1J
#1301163
0N
0J
#1302724
1>!
1-!
0.!
#1309000
1+
1D
#1310000
0+
0D
#1310163
1J
#1311163
0J
#1312724
0>!
1=!
1.!
#1314419
1L
#1314423
1K
#1319000
1+
1D
#1320000
0+
0D
#1320163
1J
#1321163
0J
#1322724
1>!
1,!
0-!
0.!
#1324419
0L
#1324423
0K
#1324671
0U
#1324684
1U
#1329000
1+
1D
#1330000
0+
0D
#1330163
1J
#1331163
0J
#1332724
0>!
0=!
1<!
1.!
#1339000
1+
1D
#1340000
0+
0D
#1340163
1J
#1341163
0J
#1342724
1>!
1-!
0.!
#1349000
1+
1D
#1350000
0+
1)
0D
19
#1350163
1J
#1351163
1N
0J
#1352724
0>!
1=!
1.!
#1354419
1L
#1354423
1K
#1354684
0U
#1359000
1+
1D
#1360000
0+
0D
#1360163
1J
#1361163
0J
#1362724
1>!
1+!
0,!
0-!
0.!
#1364419
0L
#1364423
0K
#1364594
1V
#1364671
1U
#1369000
1+
1D
#1370000
0+
0D
#1370163
1J
#1371163
0J
#1372724
1;!
0>!
0=!
0<!
1.!
#1379000
1+
1D
#1380000
0+
0D
#1380163
1J
#1381163
0J
#1382724
1>!
1-!
0.!
#1389000
1+
1D
#1390000
0+
0D
#1390163
1J
#1391163
0J
#1392724
0>!
1=!
1.!
#1394419
1L
#1394423
1K
#1399000
1+
1D
#1400000
0+
0)
0D
09
#1400163
1J
#1401163
0N
0J
#1402724
1>!
1,!
0-!
0.!
#1404419
0L
#1404423
0K
#1404671
0U
#1404684
1U
#1409000
1+
1D
#1410000
0+
0D
#1410163
1J
#1411163
0J
#1412724
0>!
0=!
1<!
1.!
#1419000
1+
1D
#1420000
0+
0D
#1420163
1J
#1421163
0J
#1422724
1>!
1-!
0.!
#1429000
1+
1D
#1430000
0+
0D
#1430163
1J
#1431163
0J
#1432724
0>!
1=!
1.!
#1434419
1L
#1434423
1K
#1434684
0U
#1439000
1+
1D
#1440000
0+
0D
#1440163
1J
#1441163
0J
#1442724
1>!
1*!
0+!
0,!
0-!
0.!
#1444419
0L
#1444423
0K
#1444594
0V
#1444595
0X
#1444671
1U
#1444717
1X
#1449000
1+
1D
#1450000
0+
1)
0D
19
#1450163
1J
#1451163
1N
0J
#1452348
1:!
#1452724
0;!
0>!
0=!
0<!
1.!
#1459000
1+
1D
#1460000
0+
0D
#1460163
1J
#1461163
0J
#1462724
1>!
1-!
0.!
#1469000
1+
1D
#1470000
0+
0D
#1470163
1J
#1471163
0J
#1472724
0>!
1=!
1.!
#1474419
1L
#1474423
1K
#1479000
1+
1D
#1480000
0+
0D
#1480163
1J
#1481163
0J
#1482724
1>!
1,!
0-!
0.!
#1484419
0L
#1484423
0K
#1484671
0U
#1484684
1U
#1489000
1+
1D
#1490000
0+
0D
#1490163
1J
#1491163
0J
#1492724
0>!
0=!
1<!
1.!
#1499000
1+
1D
#1500000
0+
0)
1*
0D
09
1<
#1500163
1J
#1501163
1H
0N
0J
#1502724
1>!
1-!
0.!
#1509000
1+
1D
#1510000
0+
0D
#1510163
1J
#1511163
0J
#1512724
0>!
1=!
1.!
#1514419
1L
#1514423
1K
#1514684
0U
#1519000
1+
1D
#1520000
0+
0D
#1520163
1J
#1521163
0J
#1522724
1>!
1+!
0,!
0-!
0.!
#1524419
0L
#1524423
0K
#1524594
1V
#1524671
1U
#1524717
0X
#1529000
1+
1D
#1530000
0+
0D
#1530163
1J
#1531163
0J
#1532724
1;!
0>!
0=!
0<!
1.!
#1539000
1+
1D
#1540000
0+
0D
#1540163
1J
#1541163
0J
#1542724
1>!
1-!
0.!
#1549000
1+
1D
#1550000
0+
1)
0D
19
#1550163
1J
#1551163
1N
0J
#1552724
0>!
1=!
1.!
#1554419
1L
#1554423
1K
#1559000
1+
1D
#1560000
0+
0D
#1560163
1J
#1561163
0J
#1562724
1>!
1,!
0-!
0.!
#1564419
0L
#1564423
0K
#1564671
0U
#1564684
1U
#1569000
1+
1D
#1570000
0+
0D
#1570163
1J
#1571163
0J
#1572724
0>!
0=!
1<!
1.!
#1579000
1+
1D
#1580000
0+
0D
#1580163
1J
#1581163
0J
#1582724
1>!
1-!
0.!
#1589000
1+
1D
#1590000
0+
0D
#1590163
1J
#1591163
0J
#1592724
0>!
1=!
1.!
#1594419
1L
#1594423
1K
#1594684
0U
#1599000
1+
1D
#1600000
0+
0)
0D
09
#1600163
1J
#1601163
0N
0J
#1602724
1>!
1)!
0*!
0+!
0,!
0-!
0.!
#1604363
1Z
#1604419
0L
#1604423
0K
#1604594
0V
